<?xml version="1.0" encoding="UTF-8" standalone="no"?>
<!-- Created with Inkscape (http://www.inkscape.org/) -->

<svg
   width="80mm"
   height="100mm"
   viewBox="0 0 80 100"
   version="1.1"
   id="svg5"
   xml:space="preserve"
   inkscape:version="1.2.2 (732a01da63, 2022-12-09)"
   sodipodi:docname="logo-cartalogue.svg"
   xmlns:inkscape="http://www.inkscape.org/namespaces/inkscape"
   xmlns:sodipodi="http://sodipodi.sourceforge.net/DTD/sodipodi-0.dtd"
   xmlns="http://www.w3.org/2000/svg"
   xmlns:svg="http://www.w3.org/2000/svg"><sodipodi:namedview
     id="namedview7"
     pagecolor="#ffffff"
     bordercolor="#000000"
     borderopacity="0.25"
     inkscape:showpageshadow="2"
     inkscape:pageopacity="0.0"
     inkscape:pagecheckerboard="0"
     inkscape:deskcolor="#d1d1d1"
     inkscape:document-units="mm"
     showgrid="false"
     inkscape:zoom="1.5393939"
     inkscape:cx="143.8878"
     inkscape:cy="164.02559"
     inkscape:window-width="1920"
     inkscape:window-height="1051"
     inkscape:window-x="-9"
     inkscape:window-y="-9"
     inkscape:window-maximized="1"
     inkscape:current-layer="svg5" /><defs
     id="defs2" /><rect
     style="fill:#e5a46c;fill-opacity:1;stroke:none;stroke-width:0.781035;stroke-linecap:round;stroke-linejoin:round;stroke-miterlimit:0;stroke-dasharray:none;stroke-opacity:1"
     id="rect8051"
     width="80"
     height="100"
     x="0"
     y="0"
     inkscape:label="fond" /><g
     id="g7992"
     inkscape:label="Carte"
     transform="translate(7.5,10)"><rect
       style="display:inline;fill:#ffffff;fill-opacity:1;stroke:#101d25;stroke-width:2.37944;stroke-linecap:round;stroke-linejoin:round;stroke-miterlimit:0;stroke-dasharray:none;stroke-opacity:1"
       id="rect301"
       width="62.62056"
       height="77.62056"
       x="1.1897202"
       y="1.1897202"
       inkscape:label="contour" /><circle
       style="display:inline;fill:#101d25;fill-opacity:1;stroke:none;stroke-width:2.64583;stroke-linecap:round;stroke-linejoin:round;stroke-miterlimit:0;stroke-dasharray:none;stroke-opacity:1"
       id="path7023"
       cx="10"
       cy="10"
       r="5"
       inkscape:label="cercle BD" /><circle
       style="display:inline;fill:#101d25;fill-opacity:1;stroke:none;stroke-width:2.64583;stroke-linecap:round;stroke-linejoin:round;stroke-miterlimit:0;stroke-dasharray:none;stroke-opacity:1"
       id="circle7914"
       cx="-55"
       cy="-70"
       r="5"
       inkscape:label="cercle BD"
       transform="scale(-1)" /><path
       id="rect7834"
       style="display:inline;fill:#101d25;fill-opacity:1;stroke:none;stroke-width:0.794;stroke-linecap:round;stroke-linejoin:round;stroke-miterlimit:0;stroke-dasharray:none"
       d="m 32.5,15.251262 c 28.366226,24.564209 24.840119,24.657355 -10e-7,49.497476 C 4.1337744,40.184527 7.6598803,40.091382 32.5,15.251262 Z"
       sodipodi:nodetypes="ccc"
       inkscape:label="centre" /></g></svg>
